/home/cocami/Desktop/Miniprojet/stockmanager/src/main/java/uk/co/danielbryant/djshopping/stockmanager/model/Stock.java
/home/cocami/Desktop/Miniprojet/stockmanager/src/main/java/uk/co/danielbryant/djshopping/stockmanager/config/DataGenerator.java
/home/cocami/Desktop/Miniprojet/stockmanager/src/main/java/uk/co/danielbryant/djshopping/stockmanager/StockManagerApplication.java
/home/cocami/Desktop/Miniprojet/stockmanager/src/main/java/uk/co/danielbryant/djshopping/stockmanager/services/StockService.java
/home/cocami/Desktop/Miniprojet/stockmanager/src/main/java/uk/co/danielbryant/djshopping/stockmanager/repositories/StockRepository.java
/home/cocami/Desktop/Miniprojet/stockmanager/src/main/java/uk/co/danielbryant/djshopping/stockmanager/resources/StockResource.java
/home/cocami/Desktop/Miniprojet/stockmanager/src/main/java/uk/co/danielbryant/djshopping/stockmanager/exceptions/StockNotFoundException.java
